MSDS 6372 Project 1: EDA
…
Red vs.White Wine: Descriptive Statistics

## # A tibble: 24 x 7
##    variable            wine.category skewness    mean    p25    p50    p75
##    <chr>               <fct>            <dbl>   <dbl>  <dbl>  <dbl>  <dbl>
##  1 volatile.acidity    red              0.672   0.528   0.39   0.52   0.64
##  2 volatile.acidity    white            1.58    0.278   0.21   0.26   0.32
##  3 total.sulfurdioxide red              1.52   46.5    22     38     62   
##  4 total.sulfurdioxide white            0.391 138.    108    134    167   
##  5 sulphates           red              2.43    0.658   0.55   0.62   0.73
##  6 sulphates           white            0.977   0.490   0.41   0.47   0.55
##  7 residual.sugar      red              4.54    2.54    1.9    2.2    2.6 
##  8 residual.sugar      white            1.08    6.39    1.7    5.2    9.9 
##  9 quality             red              0.218   5.64    5      6      6   
## 10 quality             white            0.156   5.88    5      6      6   
## # ... with 14 more rows
…
